<svg width="20" height="20" viewBox="0 0 20 20" fill="none" xmlns="http://www.w3.org/2000/svg">
<path d="M15.1111 2C16.7066 2 18 3.2934 18 4.88889V15.1111C18 16.7066 16.7066 18 15.1111 18H4.88889C3.2934 18 2 16.7066 2 15.1111V4.88889C2 3.2934 3.2934 2 4.88889 2H15.1111ZM15.1111 3.33333H4.88889C4.02978 3.33333 3.33333 4.02978 3.33333 4.88889V15.1111C3.33333 15.9702 4.02978 16.6667 4.88889 16.6667H15.1111C15.9702 16.6667 16.6667 15.9702 16.6667 15.1111V4.88889C16.6667 4.02978 15.9702 3.33333 15.1111 3.33333ZM6.22222 11.3333C6.83587 11.3333 7.33333 11.8308 7.33333 12.4444C7.33333 13.0581 6.83587 13.5556 6.22222 13.5556C5.60857 13.5556 5.11111 13.0581 5.11111 12.4444C5.11111 11.8308 5.60857 11.3333 6.22222 11.3333ZM10 11.3333C10.6136 11.3333 11.1111 11.8308 11.1111 12.4444C11.1111 13.0581 10.6136 13.5556 10 13.5556C9.38635 13.5556 8.88889 13.0581 8.88889 12.4444C8.88889 11.8308 9.38635 11.3333 10 11.3333ZM6.22222 6.88889C6.83587 6.88889 7.33333 7.38635 7.33333 8C7.33333 8.61365 6.83587 9.11111 6.22222 9.11111C5.60857 9.11111 5.11111 8.61365 5.11111 8C5.11111 7.38635 5.60857 6.88889 6.22222 6.88889ZM10 6.88889C10.6136 6.88889 11.1111 7.38635 11.1111 8C11.1111 8.61365 10.6136 9.11111 10 9.11111C9.38635 9.11111 8.88889 8.61365 8.88889 8C8.88889 7.38635 9.38635 6.88889 10 6.88889ZM13.7778 6.88889C14.3914 6.88889 14.8889 7.38635 14.8889 8C14.8889 8.61365 14.3914 9.11111 13.7778 9.11111C13.1641 9.11111 12.6667 8.61365 12.6667 8C12.6667 7.38635 13.1641 6.88889 13.7778 6.88889Z" fill="#909EAA"/>
</svg>
