<svg width="24" height="24" viewBox="0 0 24 24" fill="none" xmlns="http://www.w3.org/2000/svg">
<path d="M2.74683 15C3.12652 15 3.44032 15.2822 3.48998 15.6482L3.49683 15.75V19.2523L3.50328 19.3801C3.56302 19.9684 4.03072 20.4361 4.61902 20.4959L4.74683 20.5023H8.24683L8.3486 20.5092C8.71467 20.5588 8.99683 20.8726 8.99683 21.2523C8.99683 21.632 8.71467 21.9458 8.3486 21.9955L8.24683 22.0023H4.74683L4.5793 21.9973C3.19616 21.9142 2.08864 20.8088 2.00225 19.4265L1.99683 19.2523V15.75L2.00367 15.6482C2.05334 15.2822 2.36713 15 2.74683 15ZM21.2468 15C21.6265 15 21.9403 15.2822 21.99 15.6482L21.9968 15.75V19.2523C21.9968 20.7149 20.8551 21.9107 19.4143 21.9973L19.2468 22.0023H15.7468C15.3326 22.0023 14.9968 21.6665 14.9968 21.2523C14.9968 20.8726 15.279 20.5588 15.6451 20.5092L15.7468 20.5023H19.2468C19.894 20.5023 20.4264 20.0105 20.4904 19.3801L20.4968 19.2523V15.75C20.4968 15.3358 20.8326 15 21.2468 15ZM11.9999 15C12.5522 15 12.9999 15.4477 12.9999 16C12.9999 16.5128 12.6138 16.9355 12.1165 16.9933L11.9999 17H7.99988C7.4476 17 6.99988 16.5523 6.99988 16C6.99988 15.4872 7.38592 15.0645 7.88326 15.0067L7.99988 15H11.9999ZM15.9999 11C16.5522 11 16.9999 11.4477 16.9999 12C16.9999 12.5128 16.6138 12.9355 16.1165 12.9933L15.9999 13H7.99988C7.4476 13 6.99988 12.5523 6.99988 12C6.99988 11.4872 7.38592 11.0645 7.88326 11.0067L7.99988 11H15.9999ZM8.24683 2C8.66104 2 8.99683 2.33579 8.99683 2.75C8.99683 3.1297 8.71467 3.44349 8.3486 3.49315L8.24683 3.5H4.74683C4.09962 3.5 3.56729 3.99187 3.50328 4.62219L3.49683 4.75V8.25234C3.49683 8.66655 3.16104 9.00234 2.74683 9.00234C2.36713 9.00234 2.05334 8.72018 2.00367 8.35411L1.99683 8.25234V4.75C1.99683 3.28747 3.13853 2.0916 4.5793 2.00502L4.74683 2H8.24683ZM19.2468 2L19.4143 2.00502C20.7975 2.08813 21.905 3.19357 21.9914 4.57583L21.9968 4.75V8.25234L21.99 8.35411C21.9403 8.72018 21.6265 9.00234 21.2468 9.00234C20.8671 9.00234 20.5533 8.72018 20.5037 8.35411L20.4968 8.25234V4.75L20.4904 4.62219C20.4306 4.0339 19.9629 3.5662 19.3746 3.50645L19.2468 3.5H15.7468L15.6451 3.49315C15.279 3.44349 14.9968 3.1297 14.9968 2.75C14.9968 2.3703 15.279 2.05651 15.6451 2.00685L15.7468 2H19.2468ZM15.9999 7C16.5522 7 16.9999 7.44772 16.9999 8C16.9999 8.51284 16.6138 8.93551 16.1165 8.99327L15.9999 9H7.99988C7.4476 9 6.99988 8.55228 6.99988 8C6.99988 7.48716 7.38592 7.06449 7.88326 7.00673L7.99988 7H15.9999Z" fill="#F4662A"/>
</svg>
