<svg width="20" height="20" viewBox="0 0 20 20" fill="none" xmlns="http://www.w3.org/2000/svg">
<path d="M2.70782 13.3333C3.28279 13.3333 3.7489 13.7994 3.7489 14.3744C3.7489 14.9494 3.28279 15.4155 2.70782 15.4155C2.13285 15.4155 1.66675 14.9494 1.66675 14.3744C1.66675 13.7994 2.13285 13.3333 2.70782 13.3333ZM5.62508 13.75H17.7084C18.0536 13.75 18.3334 14.0298 18.3334 14.375C18.3334 14.6914 18.0983 14.9529 17.7932 14.9943L17.7084 15H5.62508C5.2799 15 5.00008 14.7202 5.00008 14.375C5.00008 14.0586 5.23521 13.7971 5.54027 13.7557L5.62508 13.75H17.7084H5.62508ZM2.70782 9.16667C3.28279 9.16667 3.7489 9.63277 3.7489 10.2077C3.7489 10.7827 3.28279 11.2488 2.70782 11.2488C2.13285 11.2488 1.66675 10.7827 1.66675 10.2077C1.66675 9.63277 2.13285 9.16667 2.70782 9.16667ZM5.62508 9.58333H17.7084C18.0536 9.58333 18.3334 9.86316 18.3334 10.2083C18.3334 10.5247 18.0983 10.7862 17.7932 10.8276L17.7084 10.8333H5.62508C5.2799 10.8333 5.00008 10.5535 5.00008 10.2083C5.00008 9.89192 5.23521 9.63042 5.54027 9.58904L5.62508 9.58333H17.7084H5.62508ZM2.70782 5C3.28279 5 3.7489 5.4661 3.7489 6.04107C3.7489 6.61604 3.28279 7.08215 2.70782 7.08215C2.13285 7.08215 1.66675 6.61604 1.66675 6.04107C1.66675 5.4661 2.13285 5 2.70782 5ZM5.62508 5.41667H17.7084C18.0536 5.41667 18.3334 5.69649 18.3334 6.04167C18.3334 6.35808 18.0983 6.61958 17.7932 6.66096L17.7084 6.66667H5.62508C5.2799 6.66667 5.00008 6.38684 5.00008 6.04167C5.00008 5.72525 5.23521 5.46376 5.54027 5.42237L5.62508 5.41667H17.7084H5.62508Z" fill="#909EAA"/>
</svg>
