<svg width="20" height="20" viewBox="0 0 20 20" fill="none" xmlns="http://www.w3.org/2000/svg">
<path d="M8.44444 2C12.0036 2 14.8889 4.88528 14.8889 8.44444C14.8889 9.98389 14.3491 11.3973 13.4485 12.5056L17.8047 16.8619C18.0651 17.1223 18.0651 17.5444 17.8047 17.8047C17.5681 18.0414 17.1977 18.0629 16.9367 17.8693L16.8619 17.8047L12.5056 13.4485C11.3973 14.3491 9.98389 14.8889 8.44444 14.8889C4.88528 14.8889 2 12.0036 2 8.44444C2 4.88528 4.88528 2 8.44444 2ZM8.44444 3.33333C5.62166 3.33333 3.33333 5.62166 3.33333 8.44444C3.33333 11.2672 5.62166 13.5556 8.44444 13.5556C11.2672 13.5556 13.5556 11.2672 13.5556 8.44444C13.5556 5.62166 11.2672 3.33333 8.44444 3.33333Z" fill="#909EAA"/>
</svg>
