<svg width="24" height="24" viewBox="0 0 24 24" fill="none" xmlns="http://www.w3.org/2000/svg">
<path d="M10.376 12.0002C10.376 11.1032 11.1032 10.376 12.0002 10.376C12.8973 10.376 13.6245 11.1032 13.6245 12.0002C13.6245 12.8973 12.8973 13.6245 12.0002 13.6245C11.1032 13.6245 10.376 12.8973 10.376 12.0002ZM10.376 6.00024C10.376 5.10318 11.1032 4.37598 12.0002 4.37598C12.8973 4.37598 13.6245 5.10318 13.6245 6.00024C13.6245 6.89729 12.8973 7.6245 12.0002 7.6245C11.1032 7.6245 10.376 6.89729 10.376 6.00024ZM10.376 18.0002C10.376 17.1032 11.1032 16.376 12.0002 16.376C12.8973 16.376 13.6245 17.1032 13.6245 18.0002C13.6245 18.8973 12.8973 19.6245 12.0002 19.6245C11.1032 19.6245 10.376 18.8973 10.376 18.0002Z" fill="#F4662A"/>
</svg>
